{
    "homeserver": "http://localhost:8008",
    "token": "",

    "pantalaimon": {
        "use": true,
        "username": "",
        "password": ""
    },

    "storage": "./config/bot.json",
    "prefix": "!gel",
    "resolution": "sample"
}